
                                  MODFLOW-2005     
    U.S. GEOLOGICAL SURVEY MODULAR FINITE-DIFFERENCE GROUND-WATER FLOW MODEL
                             Version 1.12.00 x/x/2015                        

 Using NAME file: box.nam 
 Run start date and time (yyyy/mm/dd hh:mm:ss): 2017/12/03 14:01:30

 Solving:  Stress period:     1    Time step:     1    Ground-Water Flow Eqn.
 Solving:  Stress period:     2    Time step:     1    Ground-Water Flow Eqn.
 Run end date and time (yyyy/mm/dd hh:mm:ss): 2017/12/03 14:01:30
 Elapsed run time:  0.038 Seconds

  Normal termination of simulation
