
                                  MODFLOW-2005     
    U.S. GEOLOGICAL SURVEY MODULAR FINITE-DIFFERENCE GROUND-WATER FLOW MODEL
                             Version 1.12.00 x/x/2015                        

 Using NAME file: box.nam 
<<<<<<< HEAD
 Run start date and time (yyyy/mm/dd hh:mm:ss): 2017/12/03 15:31:41

 Solving:  Stress period:     1    Time step:     1    Ground-Water Flow Eqn.
 Solving:  Stress period:     2    Time step:     1    Ground-Water Flow Eqn.
 Run end date and time (yyyy/mm/dd hh:mm:ss): 2017/12/03 15:31:41
 Elapsed run time:  0.062 Seconds
=======
 Run start date and time (yyyy/mm/dd hh:mm:ss): 2017/12/03 16:04:46

 Solving:  Stress period:     1    Time step:     1    Ground-Water Flow Eqn.
 Solving:  Stress period:     2    Time step:     1    Ground-Water Flow Eqn.
 Run end date and time (yyyy/mm/dd hh:mm:ss): 2017/12/03 16:04:46
 Elapsed run time:  0.045 Seconds
>>>>>>> 0763d5677788a6c61944717e1118f37ad7b61751

  Normal termination of simulation
